Chapter 8 Centering Options and Interpretations | Introduction to Multilevel Modelling
…
Then, we subtract this cluster mean from every individual student’s SES value: \(ses_{cwc} = ses - ses_{mean}\). For the students at the mean, the resulting value will be 0. Students above the mean will have positive values, and students below the mean will have negative values.

data %<>%
  mutate(ses_cwc = ses - ses_mean)

The values of ses_cwc are distributed around the mean for the cluster. The mean of the centered values for each school is now (essentially) zero:

data %>% 
  group_by(schcode) %>% 
  summarize(
    mean(ses_cwc)
  )

## # A tibble: 419 x 2
##    schcode `mean(ses_cwc)`
##      <int>           <dbl>
##  1       1        3.01e-17
##  2       2       -1.28e-17
##  3       3        4.32e-17
##  4       4        5.55e-17
##  5       5       -3.28e-18
##  6       6       -3.47e-18
##  7       7        8.67e-19
##  8       8        1.07e-17
##  9       9        1.14e-17
## 10      10       -5.56e-18
## # … with 409 more rows
…
